-- Merging decision tree log ---
manifest
ADDED from C:\Devendra Dagur\clubd2s jks\ClubD2S\ClubD2S\openCVLibrary341\src\main\AndroidManifest.xml:2:1-7:12
INJECTED from C:\Devendra Dagur\clubd2s jks\ClubD2S\ClubD2S\openCVLibrary341\src\main\AndroidManifest.xml:2:1-7:12
INJECTED from C:\Devendra Dagur\clubd2s jks\ClubD2S\ClubD2S\openCVLibrary341\src\main\AndroidManifest.xml:2:1-7:12
INJECTED from C:\Devendra Dagur\clubd2s jks\ClubD2S\ClubD2S\openCVLibrary341\src\main\AndroidManifest.xml:2:1-7:12
INJECTED from C:\Devendra Dagur\clubd2s jks\ClubD2S\ClubD2S\openCVLibrary341\src\main\AndroidManifest.xml:2:1-7:12
INJECTED from C:\Devendra Dagur\clubd2s jks\ClubD2S\ClubD2S\openCVLibrary341\src\main\AndroidManifest.xml:2:1-7:12
INJECTED from C:\Devendra Dagur\clubd2s jks\ClubD2S\ClubD2S\openCVLibrary341\src\main\AndroidManifest.xml:2:1-7:12
	package
		ADDED from C:\Devendra Dagur\clubd2s jks\ClubD2S\ClubD2S\openCVLibrary341\src\main\AndroidManifest.xml:3:7-27
		INJECTED from C:\Devendra Dagur\clubd2s jks\ClubD2S\ClubD2S\openCVLibrary341\src\main\AndroidManifest.xml
		INJECTED from C:\Devendra Dagur\clubd2s jks\ClubD2S\ClubD2S\openCVLibrary341\src\main\AndroidManifest.xml
	android:versionName
		ADDED from C:\Devendra Dagur\clubd2s jks\ClubD2S\ClubD2S\openCVLibrary341\src\main\AndroidManifest.xml:5:7-34
		INJECTED from C:\Devendra Dagur\clubd2s jks\ClubD2S\ClubD2S\openCVLibrary341\src\main\AndroidManifest.xml
		INJECTED from C:\Devendra Dagur\clubd2s jks\ClubD2S\ClubD2S\openCVLibrary341\src\main\AndroidManifest.xml
	xmlns:android
		ADDED from C:\Devendra Dagur\clubd2s jks\ClubD2S\ClubD2S\openCVLibrary341\src\main\AndroidManifest.xml:2:11-69
	android:versionCode
		ADDED from C:\Devendra Dagur\clubd2s jks\ClubD2S\ClubD2S\openCVLibrary341\src\main\AndroidManifest.xml:4:7-33
		INJECTED from C:\Devendra Dagur\clubd2s jks\ClubD2S\ClubD2S\openCVLibrary341\src\main\AndroidManifest.xml
		INJECTED from C:\Devendra Dagur\clubd2s jks\ClubD2S\ClubD2S\openCVLibrary341\src\main\AndroidManifest.xml
uses-sdk
INJECTED from C:\Devendra Dagur\clubd2s jks\ClubD2S\ClubD2S\openCVLibrary341\src\main\AndroidManifest.xml reason: use-sdk injection requested
INJECTED from C:\Devendra Dagur\clubd2s jks\ClubD2S\ClubD2S\openCVLibrary341\src\main\AndroidManifest.xml
INJECTED from C:\Devendra Dagur\clubd2s jks\ClubD2S\ClubD2S\openCVLibrary341\src\main\AndroidManifest.xml
INJECTED from C:\Devendra Dagur\clubd2s jks\ClubD2S\ClubD2S\openCVLibrary341\src\main\AndroidManifest.xml
INJECTED from C:\Devendra Dagur\clubd2s jks\ClubD2S\ClubD2S\openCVLibrary341\src\main\AndroidManifest.xml
	android:targetSdkVersion
		INJECTED from C:\Devendra Dagur\clubd2s jks\ClubD2S\ClubD2S\openCVLibrary341\src\main\AndroidManifest.xml
		ADDED from C:\Devendra Dagur\clubd2s jks\ClubD2S\ClubD2S\openCVLibrary341\src\main\AndroidManifest.xml
		INJECTED from C:\Devendra Dagur\clubd2s jks\ClubD2S\ClubD2S\openCVLibrary341\src\main\AndroidManifest.xml
	android:minSdkVersion
		INJECTED from C:\Devendra Dagur\clubd2s jks\ClubD2S\ClubD2S\openCVLibrary341\src\main\AndroidManifest.xml
		ADDED from C:\Devendra Dagur\clubd2s jks\ClubD2S\ClubD2S\openCVLibrary341\src\main\AndroidManifest.xml
		INJECTED from C:\Devendra Dagur\clubd2s jks\ClubD2S\ClubD2S\openCVLibrary341\src\main\AndroidManifest.xml
